quetime training = 3292.543913
time predicting = 12.485178
wrong[0] = 1 / 40
wrong[1] = 3 / 48
wrong[2] = 5 / 50
wrong[3] = 0 / 35
wrong[4] = 1 / 32
wrong[5] = 3 / 38
wrong[6] = 5 / 41
wrong[7] = 1 / 38
wrong[8] = 9 / 45
wrong[9] = 4 / 46
score = 0.922518
accurancy 381 / 413
epochs = 20
batch_size = 32
